datapath.vcd
$date
	Wed Oct 11 02:54:56 2023
$end
$version
	Icarus Verilog
$end
$timescale
	1ps
$end
$scope module datapath_tb $end
$var reg 1 ! clk $end
$var reg 1 " request $end
$var reg 1 # rst $end
$scope module u_datapath $end
$var wire 1 ! clk $end
$var wire 1 " request $end
$var wire 1 # rst $end
$var wire 1 $ we_re $end
$var wire 4 % wrapmasking [3:0] $end
$var wire 32 & uj_imme [31:0] $end
$var wire 32 ' u_imme [31:0] $end
$var wire 1 ( store $end
$var wire 32 ) s_imme [31:0] $end
$var wire 32 * rs2 [31:0] $end
$var wire 2 + rs1_sel [1:0] $end
$var wire 32 , rs1 [31:0] $end
$var wire 32 - res [31:0] $end
$var wire 1 . reg_write $end
$var wire 2 / rd_sel [1:0] $end
$var wire 32 0 r_data [31:0] $end
$var wire 32 1 out [31:0] $end
$var wire 32 2 op_b [31:0] $end
$var wire 1 3 mem_write $end
$var wire 1 4 load $end
$var wire 1 5 jalr $end
$var wire 1 6 jal $end
$var wire 32 7 instr_out [31:0] $end
$var wire 3 8 imme_sel [2:0] $end
$var wire 32 9 i_imme [31:0] $end
$var wire 32 : data_out_s [31:0] $end
$var wire 32 ; data_out_l [31:0] $end
$var wire 32 < data [31:0] $end
$var wire 1 = branchsignal $end
$var wire 1 > branch $end
$var wire 32 ? b_imme [31:0] $end
$var wire 4 @ alu_controller [3:0] $end
$var wire 32 A address_out [31:0] $end
$scope module u_datamemory $end
$var wire 8 B address [7:0] $end
$var wire 1 ! clk $end
$var wire 1 " request $end
$var wire 1 $ we_re $end
$var wire 32 C w_data [31:0] $end
$var wire 4 D masking [3:0] $end
$var reg 32 E r_data [31:0] $end
$upscope $end
$scope module u_decode $end
$var wire 1 F auipc $end
$var wire 1 ! clk $end
$var wire 1 G lui $end
$var wire 5 H rd_add [4:0] $end
$var wire 5 I rs1_add [4:0] $end
$var wire 5 J rs2_add [4:0] $end
$var wire 1 # rst $end
$var wire 1 K we_re $end
$var wire 32 L uj_imme [31:0] $end
$var wire 32 M u_imme [31:0] $end
$var wire 1 ( store $end
$var wire 32 N s_imme [31:0] $end
$var wire 32 O rs2 [31:0] $end
$var wire 2 P rs1_sel [1:0] $end
$var wire 32 Q rs1 [31:0] $end
$var wire 1 . reg_write $end
$var wire 1 . reg_enable $end
$var wire 2 R rd_sel [1:0] $end
$var wire 1 3 mem_write $end
$var wire 1 4 load $end
$var wire 1 5 jalr $end
$var wire 1 6 jal $end
$var wire 32 S inst [31:0] $end
$var wire 3 T imme_sel [2:0] $end
$var wire 32 U i_imme [31:0] $end
$var wire 32 V data_i [31:0] $end
$var wire 1 > branch $end
$var wire 32 W b_imme [31:0] $end
$var wire 4 X alu_controller [3:0] $end
$scope module u_immediate_generator $end
$var wire 32 Y inst [31:0] $end
$var reg 32 Z b_imme [31:0] $end
$var reg 32 [ i_imme [31:0] $end
$var reg 32 \ s_imme [31:0] $end
$var reg 32 ] u_imme [31:0] $end
$var reg 32 ^ uj_imme [31:0] $end
$upscope $end
$scope module u_regfile $end
$var wire 1 ! clk $end
$var wire 5 _ rd_add [4:0] $end
$var wire 5 ` rs1_add [4:0] $end
$var wire 5 a rs2_add [4:0] $end
$var wire 1 # rst $end
$var wire 1 . reg_enable $end
$var wire 32 b data_i [31:0] $end
$var reg 32 c i [31:0] $end
$var reg 32 d rs1 [31:0] $end
$var reg 32 e rs2 [31:0] $end
$upscope $end
$scope module u_top_controller $end
$var wire 1 K we_re $end
$var wire 1 ( store $end
$var wire 2 f rs1_sel [1:0] $end
$var wire 1 . reg_write $end
$var wire 2 g rd_sel [1:0] $end
$var wire 1 h r_type $end
$var wire 1 3 mem_write $end
$var wire 1 i lui $end
$var wire 1 4 load $end
$var wire 1 5 jalr $end
$var wire 1 6 jal $end
$var wire 32 j inst [31:0] $end
$var wire 3 k imme_sel [2:0] $end
$var wire 1 l i_type $end
$var wire 1 > branch $end
$var wire 1 m auipc $end
$var wire 4 n alu_controller [3:0] $end
$scope module u_alu_control $end
$var wire 3 o func3 [2:0] $end
$var wire 1 p func7 $end
$var wire 1 q jalr $end
$var wire 1 ( store $end
$var wire 1 h r_type $end
$var wire 1 i lui $end
$var wire 1 4 load $end
$var wire 1 6 jal $end
$var wire 1 l i_type $end
$var wire 1 > branch $end
$var wire 1 m auipc $end
$var reg 4 r alu_controller [3:0] $end
$upscope $end
$scope module u_controller $end
$var wire 1 ( store $end
$var wire 1 h r_type $end
$var wire 1 i lui $end
$var wire 1 4 load $end
$var wire 1 5 jalr $end
$var wire 1 6 jal $end
$var wire 1 l i_type $end
$var wire 1 > branch $end
$var wire 1 m auipc $end
$var reg 3 s imme_sel [2:0] $end
$var reg 1 3 mem_write $end
$var reg 2 t rd_sel [1:0] $end
$var reg 1 . reg_write $end
$var reg 2 u rs1_sel [1:0] $end
$var reg 1 K we_re $end
$upscope $end
$scope module u_typedecode $end
$var wire 7 v opcode [6:0] $end
$var reg 1 m auipc $end
$var reg 1 > branch $end
$var reg 1 l i_type $end
$var reg 1 6 jal $end
$var reg 1 5 jalr $end
$var reg 1 4 load $end
$var reg 1 i lui $end
$var reg 1 h r_type $end
$var reg 1 ( store $end
$upscope $end
$upscope $end
$upscope $end
$scope module u_execute $end
$var wire 32 w b_imme [31:0] $end
$var wire 1 > bena $end
$var wire 3 x func_3 [2:0] $end
$var wire 32 y i_imme [31:0] $end
$var wire 3 z imme_sel [2:0] $end
$var wire 4 { op [3:0] $end
$var wire 32 | rs1 [31:0] $end
$var wire 32 } rs2 [31:0] $end
$var wire 2 ~ rs_sel [1:0] $end
$var wire 32 !" s_imme [31:0] $end
$var wire 32 "" u_imme [31:0] $end
$var wire 32 #" uj_imme [31:0] $end
$var wire 32 $" res [31:0] $end
$var wire 32 %" pc_out [31:0] $end
$var wire 32 &" out [31:0] $end
$var wire 32 '" op_b [31:0] $end
$var wire 1 = branchsignal $end
$var wire 32 (" a_rs2 [31:0] $end
$var wire 32 )" a_rs1 [31:0] $end
$scope module u_alu $end
$var wire 4 *" op [3:0] $end
$var wire 32 +" a_rs2 [31:0] $end
$var wire 32 ," a_rs1 [31:0] $end
$var reg 32 -" out [31:0] $end
$upscope $end
$scope module u_alu_mux $end
$var wire 32 ." b_imme [31:0] $end
$var wire 32 /" i_imme [31:0] $end
$var wire 3 0" imme_sel [2:0] $end
$var wire 32 1" rs2 [31:0] $end
$var wire 32 2" s_imme [31:0] $end
$var wire 32 3" u_imme [31:0] $end
$var wire 32 4" uj_imme [31:0] $end
$var reg 32 5" op_b [31:0] $end
$upscope $end
$scope module u_alu_mux2 $end
$var wire 32 6" rs1 [31:0] $end
$var wire 2 7" rs_sel [1:0] $end
$var wire 32 8" pc_out [31:0] $end
$var reg 32 9" res [31:0] $end
$upscope $end
$scope module u_branch $end
$var wire 1 > bena $end
$var wire 3 :" func_3 [2:0] $end
$var wire 32 ;" rs1 [31:0] $end
$var wire 32 <" rs2 [31:0] $end
$var reg 1 = branchsignal $end
$upscope $end
$upscope $end
$scope module u_fetch $end
$var wire 32 =" address_in [31:0] $end
$var wire 32 >" aluout [31:0] $end
$var wire 1 > branch $end
$var wire 1 = branchsignal $end
$var wire 1 ! clk $end
$var wire 1 6 jal $end
$var wire 1 5 jalr $end
$var wire 1 # rst $end
$var wire 32 ?" address_out [31:0] $end
$scope module u_pc $end
$var wire 32 @" address_in [31:0] $end
$var wire 32 A" aluout [31:0] $end
$var wire 1 > branch $end
$var wire 1 = branchsignal $end
$var wire 1 ! clk $end
$var wire 1 6 jal $end
$var wire 1 5 jalr $end
$var wire 1 # rst $end
$var reg 32 B" address_out [31:0] $end
$upscope $end
$upscope $end
$scope module u_inst_mem $end
$var wire 8 C" address [7:0] $end
$var wire 1 ! clk $end
$var wire 4 D" masking [3:0] $end
$var wire 1 " request $end
$var wire 32 E" w_data [31:0] $end
$var wire 1 F" we_re $end
$var reg 32 G" r_data [31:0] $end
$upscope $end
$scope module u_memory $end
$var wire 2 H" byte_address [1:0] $end
$var wire 32 I" data_in_l [31:0] $end
$var wire 32 J" data_in_s [31:0] $end
$var wire 3 K" func3 [2:0] $end
$var wire 1 4 load $end
$var wire 1 ( store $end
$var wire 4 L" wrapmasking [3:0] $end
$var wire 32 M" data_out_s [31:0] $end
$var wire 32 N" data_out_l [31:0] $end
$scope module u_wrapper $end
$var wire 2 O" byte_address [1:0] $end
$var wire 32 P" data_in_l [31:0] $end
$var wire 32 Q" data_in_s [31:0] $end
$var wire 3 R" func3 [2:0] $end
$var wire 1 4 load $end
$var wire 1 ( store $end
$var reg 32 S" data_out_l [31:0] $end
$var reg 32 T" data_out_s [31:0] $end
$var reg 4 U" wrapmasking [3:0] $end
$upscope $end
$upscope $end
$scope module u_writeback $end
$var wire 32 V" data_alu_out [31:0] $end
$var wire 32 W" data_reg_l [31:0] $end
$var wire 1 4 load $end
$var wire 32 X" lui_imme [31:0] $end
$var wire 32 Y" pc_o [31:0] $end
$var wire 2 Z" rd_select [1:0] $end
$var wire 32 [" data [31:0] $end
$scope module u_regfile_mux $end
$var wire 32 \" data_alu_out [31:0] $end
$var wire 32 ]" data_reg_l [31:0] $end
$var wire 1 4 load $end
$var wire 32 ^" lui_imme [31:0] $end
$var wire 32 _" pc_o [31:0] $end
$var wire 2 `" rd_select [1:0] $end
$var reg 32 a" data [31:0] $end
$upscope $end
$upscope $end
$upscope $end
$upscope $end
$enddefinitions $end
#0
$dumpvars
bx a"
bx `"
bx _"
bx ^"
bx ]"
bx \"
bx ["
bx Z"
bx Y"
bx X"
bx W"
bx V"
bx U"
bx T"
bx S"
bx R"
bx Q"
bx P"
bx O"
bx N"
bx M"
bx L"
bx K"
bx J"
bx I"
bx H"
bx G"
zF"
bz E"
bz D"
bx C"
bx B"
bx A"
b0 @"
bx ?"
bx >"
b0 ="
bx <"
bx ;"
bx :"
bx 9"
bx 8"
bx 7"
bx 6"
bx 5"
bx 4"
bx 3"
bx 2"
bx 1"
bx 0"
bx /"
bx ."
bx -"
bx ,"
bx +"
bx *"
bx )"
bx ("
bx '"
bx &"
bx %"
bx $"
bx #"
bx ""
bx !"
bx ~
bx }
bx |
bx {
bx z
bx y
bx x
bx w
bx v
bx u
bx t
bx s
bx r
zq
xp
bx o
bx n
xm
xl
bx k
bx j
xi
xh
bx g
bx f
bx e
bx d
bx c
bx b
bx a
bx `
bx _
bx ^
bx ]
bx \
bx [
bx Z
bx Y
bx X
bx W
bx V
bx U
bx T
bx S
bx R
bx Q
bx P
bx O
bx N
bx M
bx L
xK
bx J
bx I
bx H
zG
zF
bx E
bx D
bx C
bx B
bx A
bx @
bx ?
x>
x=
bx <
bx ;
bx :
bx 9
bx 8
bx 7
x6
x5
x4
x3
bx 2
bx 1
bx 0
bx /
x.
bx -
bx ,
bx +
bx *
bx )
x(
bx '
bx &
bx %
z$
0#
x"
0!
$end
#5000
b0 C"
b0 A
b0 %"
b0 8"
b0 ?"
b0 B"
b0 Y"
b0 _"
b100000 c
1!
#10000
b1000000000000010010011 0
b1000000000000010010011 E
b1000000000000010010011 I"
b1000000000000010010011 P"
b10 <
b10 V
b10 b
b10 ["
b10 a"
b0 B
b10 H"
b10 O"
b10 1
b10 &"
b10 -"
b10 >"
b10 A"
b10 V"
b10 \"
b10 2
b10 '"
b10 ("
b10 +"
b10 5"
0K
b1 8
b1 T
b1 k
b1 s
b1 z
b1 0"
b0 +
b0 P
b0 f
b0 u
b0 ~
b0 7"
b0 /
b0 R
b0 g
b0 t
b0 Z"
b0 `"
1.
03
b0 -
b0 $"
b0 )"
b0 ,"
b0 9"
b0 @
b0 X
b0 n
b0 r
b0 {
b0 *"
0m
0i
05
06
0>
04
0(
1l
0h
b0 *
b0 O
b0 e
b0 }
b0 1"
b0 <"
b0 J"
b0 Q"
b0 ,
b0 Q
b0 d
b0 |
b0 6"
b0 ;"
0p
b0 o
b10011 v
b0 K"
b0 R"
b0 x
b0 :"
b10 J
b10 a
b0 I
b0 `
b1 H
b1 _
b10 &
b10 L
b10 ^
b10 #"
b10 4"
b1000000000000000000000 '
b1000000000000000000000 M
b1000000000000000000000 ]
b1000000000000000000000 ""
b1000000000000000000000 3"
b1000000000000000000000 X"
b1000000000000000000000 ^"
b100000000000 ?
b100000000000 W
b100000000000 Z
b100000000000 w
b100000000000 ."
b10 9
b10 U
b10 [
b10 y
b10 /"
b1 )
b1 N
b1 \
b1 !"
b1 2"
b1000000000000010010011 7
b1000000000000010010011 S
b1000000000000010010011 Y
b1000000000000010010011 j
b1000000000000010010011 G"
0!
1"
1#
#15000
b10 H
b10 _
b10 ?
b10 W
b10 Z
b10 w
b10 ."
b10 )
b10 N
b10 \
b10 !"
b10 2"
b1000000000000100010011 7
b1000000000000100010011 S
b1000000000000100010011 Y
b1000000000000100010011 j
b1000000000000100010011 G"
b1 C"
b100 A
b100 %"
b100 8"
b100 ?"
b100 B"
b100 Y"
b100 _"
1!
#20000
0!
#25000
b0 H"
b0 O"
b1000000000000010010011 0
b1000000000000010010011 E
b1000000000000010010011 I"
b1000000000000010010011 P"
b0 <
b0 V
b0 b
b0 ["
b0 a"
b0 B
b1 +
b1 P
b1 f
b1 u
b1 ~
b1 7"
b10 8
b10 T
b10 k
b10 s
b10 z
b10 0"
0.
b1000 -
b1000 $"
b1000 )"
b1000 ,"
b1000 9"
1=
b0 1
b0 &"
b0 -"
b0 >"
b0 A"
b0 V"
b0 \"
1>
0l
b10 ,
b10 Q
b10 d
b10 |
b10 6"
b10 ;"
b11111111111111111111111111111000 2
b11111111111111111111111111111000 '"
b11111111111111111111111111111000 ("
b11111111111111111111111111111000 +"
b11111111111111111111111111111000 5"
1p
b1100011 v
b1 I
b1 `
b11001 H
b11001 _
b11111111111100001000011111100010 &
b11111111111100001000011111100010 L
b11111111111100001000011111100010 ^
b11111111111100001000011111100010 #"
b11111111111100001000011111100010 4"
b11111111111111111111111111111000 ?
b11111111111111111111111111111000 W
b11111111111111111111111111111000 Z
b11111111111111111111111111111000 w
b11111111111111111111111111111000 ."
b11111110001000001000000000000000 '
b11111110001000001000000000000000 M
b11111110001000001000000000000000 ]
b11111110001000001000000000000000 ""
b11111110001000001000000000000000 3"
b11111110001000001000000000000000 X"
b11111110001000001000000000000000 ^"
b11111111111111111111111111100010 9
b11111111111111111111111111100010 U
b11111111111111111111111111100010 [
b11111111111111111111111111100010 y
b11111111111111111111111111100010 /"
b11111111111111111111111111111001 )
b11111111111111111111111111111001 N
b11111111111111111111111111111001 \
b11111111111111111111111111111001 !"
b11111111111111111111111111111001 2"
b11111110001000001000110011100011 7
b11111110001000001000110011100011 S
b11111110001000001000110011100011 Y
b11111110001000001000110011100011 j
b11111110001000001000110011100011 G"
b10 C"
b10 *
b10 O
b10 e
b10 }
b10 1"
b10 <"
b10 J"
b10 Q"
b1000 A
b1000 %"
b1000 8"
b1000 ?"
b1000 B"
b1000 Y"
b1000 _"
1!
#30000
0!
#35000
b10 H"
b10 O"
1.
b1 8
b1 T
b1 k
b1 s
b1 z
b1 0"
b0 +
b0 P
b0 f
b0 u
b0 ~
b0 7"
1l
0>
b0 ,
b0 Q
b0 d
b0 |
b0 6"
b0 ;"
b10 2
b10 '"
b10 ("
b10 +"
b10 5"
b1000000000000010010011 0
b1000000000000010010011 E
b1000000000000010010011 I"
b1000000000000010010011 P"
0p
b10011 v
b0 I
b0 `
b1 H
b1 _
b10 &
b10 L
b10 ^
b10 #"
b10 4"
b1000000000000000000000 '
b1000000000000000000000 M
b1000000000000000000000 ]
b1000000000000000000000 ""
b1000000000000000000000 3"
b1000000000000000000000 X"
b1000000000000000000000 ^"
b100000000000 ?
b100000000000 W
b100000000000 Z
b100000000000 w
b100000000000 ."
b10 9
b10 U
b10 [
b10 y
b10 /"
b1 )
b1 N
b1 \
b1 !"
b1 2"
b10 <
b10 V
b10 b
b10 ["
b10 a"
b0 B
b1000000000000010010011 7
b1000000000000010010011 S
b1000000000000010010011 Y
b1000000000000010010011 j
b1000000000000010010011 G"
b10 1
b10 &"
b10 -"
b10 >"
b10 A"
b10 V"
b10 \"
b0 C"
b0 -
b0 $"
b0 )"
b0 ,"
b0 9"
b0 A
b0 %"
b0 8"
b0 ?"
b0 B"
b0 Y"
b0 _"
1!
#40000
0!
#45000
b10 H
b10 _
b10 ?
b10 W
b10 Z
b10 w
b10 ."
b10 )
b10 N
b10 \
b10 !"
b10 2"
b1000000000000100010011 7
b1000000000000100010011 S
b1000000000000100010011 Y
b1000000000000100010011 j
b1000000000000100010011 G"
b1 C"
b100 A
b100 %"
b100 8"
b100 ?"
b100 B"
b100 Y"
b100 _"
1!
#50000
0!
#55000
b0 H"
b0 O"
b1000000000000010010011 0
b1000000000000010010011 E
b1000000000000010010011 I"
b1000000000000010010011 P"
b0 <
b0 V
b0 b
b0 ["
b0 a"
b0 B
b1 +
b1 P
b1 f
b1 u
b1 ~
b1 7"
b10 8
b10 T
b10 k
b10 s
b10 z
b10 0"
0.
b1000 -
b1000 $"
b1000 )"
b1000 ,"
b1000 9"
b0 1
b0 &"
b0 -"
b0 >"
b0 A"
b0 V"
b0 \"
1>
0l
b10 ,
b10 Q
b10 d
b10 |
b10 6"
b10 ;"
b11111111111111111111111111111000 2
b11111111111111111111111111111000 '"
b11111111111111111111111111111000 ("
b11111111111111111111111111111000 +"
b11111111111111111111111111111000 5"
1p
b1100011 v
b1 I
b1 `
b11001 H
b11001 _
b11111111111100001000011111100010 &
b11111111111100001000011111100010 L
b11111111111100001000011111100010 ^
b11111111111100001000011111100010 #"
b11111111111100001000011111100010 4"
b11111111111111111111111111111000 ?
b11111111111111111111111111111000 W
b11111111111111111111111111111000 Z
b11111111111111111111111111111000 w
b11111111111111111111111111111000 ."
b11111110001000001000000000000000 '
b11111110001000001000000000000000 M
b11111110001000001000000000000000 ]
b11111110001000001000000000000000 ""
b11111110001000001000000000000000 3"
b11111110001000001000000000000000 X"
b11111110001000001000000000000000 ^"
b11111111111111111111111111100010 9
b11111111111111111111111111100010 U
b11111111111111111111111111100010 [
b11111111111111111111111111100010 y
b11111111111111111111111111100010 /"
b11111111111111111111111111111001 )
b11111111111111111111111111111001 N
b11111111111111111111111111111001 \
b11111111111111111111111111111001 !"
b11111111111111111111111111111001 2"
b11111110001000001000110011100011 7
b11111110001000001000110011100011 S
b11111110001000001000110011100011 Y
b11111110001000001000110011100011 j
b11111110001000001000110011100011 G"
b10 C"
b1000 A
b1000 %"
b1000 8"
b1000 ?"
b1000 B"
b1000 Y"
b1000 _"
1!
#60000
0!
#65000
b10 H"
b10 O"
1.
b1 8
b1 T
b1 k
b1 s
b1 z
b1 0"
b0 +
b0 P
b0 f
b0 u
b0 ~
b0 7"
1l
0>
b0 ,
b0 Q
b0 d
b0 |
b0 6"
b0 ;"
b10 2
b10 '"
b10 ("
b10 +"
b10 5"
b1000000000000010010011 0
b1000000000000010010011 E
b1000000000000010010011 I"
b1000000000000010010011 P"
0p
b10011 v
b0 I
b0 `
b1 H
b1 _
b10 &
b10 L
b10 ^
b10 #"
b10 4"
b1000000000000000000000 '
b1000000000000000000000 M
b1000000000000000000000 ]
b1000000000000000000000 ""
b1000000000000000000000 3"
b1000000000000000000000 X"
b1000000000000000000000 ^"
b100000000000 ?
b100000000000 W
b100000000000 Z
b100000000000 w
b100000000000 ."
b10 9
b10 U
b10 [
b10 y
b10 /"
b1 )
b1 N
b1 \
b1 !"
b1 2"
b10 <
b10 V
b10 b
b10 ["
b10 a"
b0 B
b1000000000000010010011 7
b1000000000000010010011 S
b1000000000000010010011 Y
b1000000000000010010011 j
b1000000000000010010011 G"
b10 1
b10 &"
b10 -"
b10 >"
b10 A"
b10 V"
b10 \"
b0 C"
b0 -
b0 $"
b0 )"
b0 ,"
b0 9"
b0 A
b0 %"
b0 8"
b0 ?"
b0 B"
b0 Y"
b0 _"
1!
#70000
0!
#75000
b10 H
b10 _
b10 ?
b10 W
b10 Z
b10 w
b10 ."
b10 )
b10 N
b10 \
b10 !"
b10 2"
b1000000000000100010011 7
b1000000000000100010011 S
b1000000000000100010011 Y
b1000000000000100010011 j
b1000000000000100010011 G"
b1 C"
b100 A
b100 %"
b100 8"
b100 ?"
b100 B"
b100 Y"
b100 _"
1!
#80000
0!
#85000
b0 H"
b0 O"
b1000000000000010010011 0
b1000000000000010010011 E
b1000000000000010010011 I"
b1000000000000010010011 P"
b0 <
b0 V
b0 b
b0 ["
b0 a"
b0 B
b1 +
b1 P
b1 f
b1 u
b1 ~
b1 7"
b10 8
b10 T
b10 k
b10 s
b10 z
b10 0"
0.
b1000 -
b1000 $"
b1000 )"
b1000 ,"
b1000 9"
b0 1
b0 &"
b0 -"
b0 >"
b0 A"
b0 V"
b0 \"
1>
0l
b10 ,
b10 Q
b10 d
b10 |
b10 6"
b10 ;"
b11111111111111111111111111111000 2
b11111111111111111111111111111000 '"
b11111111111111111111111111111000 ("
b11111111111111111111111111111000 +"
b11111111111111111111111111111000 5"
1p
b1100011 v
b1 I
b1 `
b11001 H
b11001 _
b11111111111100001000011111100010 &
b11111111111100001000011111100010 L
b11111111111100001000011111100010 ^
b11111111111100001000011111100010 #"
b11111111111100001000011111100010 4"
b11111111111111111111111111111000 ?
b11111111111111111111111111111000 W
b11111111111111111111111111111000 Z
b11111111111111111111111111111000 w
b11111111111111111111111111111000 ."
b11111110001000001000000000000000 '
b11111110001000001000000000000000 M
b11111110001000001000000000000000 ]
b11111110001000001000000000000000 ""
b11111110001000001000000000000000 3"
b11111110001000001000000000000000 X"
b11111110001000001000000000000000 ^"
b11111111111111111111111111100010 9
b11111111111111111111111111100010 U
b11111111111111111111111111100010 [
b11111111111111111111111111100010 y
b11111111111111111111111111100010 /"
b11111111111111111111111111111001 )
b11111111111111111111111111111001 N
b11111111111111111111111111111001 \
b11111111111111111111111111111001 !"
b11111111111111111111111111111001 2"
b11111110001000001000110011100011 7
b11111110001000001000110011100011 S
b11111110001000001000110011100011 Y
b11111110001000001000110011100011 j
b11111110001000001000110011100011 G"
b10 C"
b1000 A
b1000 %"
b1000 8"
b1000 ?"
b1000 B"
b1000 Y"
b1000 _"
1!
#90000
0!
#95000
b10 H"
b10 O"
1.
b1 8
b1 T
b1 k
b1 s
b1 z
b1 0"
b0 +
b0 P
b0 f
b0 u
b0 ~
b0 7"
1l
0>
b0 ,
b0 Q
b0 d
b0 |
b0 6"
b0 ;"
b10 2
b10 '"
b10 ("
b10 +"
b10 5"
b1000000000000010010011 0
b1000000000000010010011 E
b1000000000000010010011 I"
b1000000000000010010011 P"
0p
b10011 v
b0 I
b0 `
b1 H
b1 _
b10 &
b10 L
b10 ^
b10 #"
b10 4"
b1000000000000000000000 '
b1000000000000000000000 M
b1000000000000000000000 ]
b1000000000000000000000 ""
b1000000000000000000000 3"
b1000000000000000000000 X"
b1000000000000000000000 ^"
b100000000000 ?
b100000000000 W
b100000000000 Z
b100000000000 w
b100000000000 ."
b10 9
b10 U
b10 [
b10 y
b10 /"
b1 )
b1 N
b1 \
b1 !"
b1 2"
b10 <
b10 V
b10 b
b10 ["
b10 a"
b0 B
b1000000000000010010011 7
b1000000000000010010011 S
b1000000000000010010011 Y
b1000000000000010010011 j
b1000000000000010010011 G"
b10 1
b10 &"
b10 -"
b10 >"
b10 A"
b10 V"
b10 \"
b0 C"
b0 -
b0 $"
b0 )"
b0 ,"
b0 9"
b0 A
b0 %"
b0 8"
b0 ?"
b0 B"
b0 Y"
b0 _"
1!
#100000
0!
#105000
b10 H
b10 _
b10 ?
b10 W
b10 Z
b10 w
b10 ."
b10 )
b10 N
b10 \
b10 !"
b10 2"
b1000000000000100010011 7
b1000000000000100010011 S
b1000000000000100010011 Y
b1000000000000100010011 j
b1000000000000100010011 G"
b1 C"
b100 A
b100 %"
b100 8"
b100 ?"
b100 B"
b100 Y"
b100 _"
1!
#110000
0!
#115000
b0 H"
b0 O"
b1000000000000010010011 0
b1000000000000010010011 E
b1000000000000010010011 I"
b1000000000000010010011 P"
b0 <
b0 V
b0 b
b0 ["
b0 a"
b0 B
b1 +
b1 P
b1 f
b1 u
b1 ~
b1 7"
b10 8
b10 T
b10 k
b10 s
b10 z
b10 0"
0.
b1000 -
b1000 $"
b1000 )"
b1000 ,"
b1000 9"
b0 1
b0 &"
b0 -"
b0 >"
b0 A"
b0 V"
b0 \"
1>
0l
b10 ,
b10 Q
b10 d
b10 |
b10 6"
b10 ;"
b11111111111111111111111111111000 2
b11111111111111111111111111111000 '"
b11111111111111111111111111111000 ("
b11111111111111111111111111111000 +"
b11111111111111111111111111111000 5"
1p
b1100011 v
b1 I
b1 `
b11001 H
b11001 _
b11111111111100001000011111100010 &
b11111111111100001000011111100010 L
b11111111111100001000011111100010 ^
b11111111111100001000011111100010 #"
b11111111111100001000011111100010 4"
b11111111111111111111111111111000 ?
b11111111111111111111111111111000 W
b11111111111111111111111111111000 Z
b11111111111111111111111111111000 w
b11111111111111111111111111111000 ."
b11111110001000001000000000000000 '
b11111110001000001000000000000000 M
b11111110001000001000000000000000 ]
b11111110001000001000000000000000 ""
b11111110001000001000000000000000 3"
b11111110001000001000000000000000 X"
b11111110001000001000000000000000 ^"
b11111111111111111111111111100010 9
b11111111111111111111111111100010 U
b11111111111111111111111111100010 [
b11111111111111111111111111100010 y
b11111111111111111111111111100010 /"
b11111111111111111111111111111001 )
b11111111111111111111111111111001 N
b11111111111111111111111111111001 \
b11111111111111111111111111111001 !"
b11111111111111111111111111111001 2"
b11111110001000001000110011100011 7
b11111110001000001000110011100011 S
b11111110001000001000110011100011 Y
b11111110001000001000110011100011 j
b11111110001000001000110011100011 G"
b10 C"
b1000 A
b1000 %"
b1000 8"
b1000 ?"
b1000 B"
b1000 Y"
b1000 _"
1!
#120000
0!
#125000
b10 H"
b10 O"
1.
b1 8
b1 T
b1 k
b1 s
b1 z
b1 0"
b0 +
b0 P
b0 f
b0 u
b0 ~
b0 7"
1l
0>
b0 ,
b0 Q
b0 d
b0 |
b0 6"
b0 ;"
b10 2
b10 '"
b10 ("
b10 +"
b10 5"
b1000000000000010010011 0
b1000000000000010010011 E
b1000000000000010010011 I"
b1000000000000010010011 P"
0p
b10011 v
b0 I
b0 `
b1 H
b1 _
b10 &
b10 L
b10 ^
b10 #"
b10 4"
b1000000000000000000000 '
b1000000000000000000000 M
b1000000000000000000000 ]
b1000000000000000000000 ""
b1000000000000000000000 3"
b1000000000000000000000 X"
b1000000000000000000000 ^"
b100000000000 ?
b100000000000 W
b100000000000 Z
b100000000000 w
b100000000000 ."
b10 9
b10 U
b10 [
b10 y
b10 /"
b1 )
b1 N
b1 \
b1 !"
b1 2"
b10 <
b10 V
b10 b
b10 ["
b10 a"
b0 B
b1000000000000010010011 7
b1000000000000010010011 S
b1000000000000010010011 Y
b1000000000000010010011 j
b1000000000000010010011 G"
b10 1
b10 &"
b10 -"
b10 >"
b10 A"
b10 V"
b10 \"
b0 C"
b0 -
b0 $"
b0 )"
b0 ,"
b0 9"
b0 A
b0 %"
b0 8"
b0 ?"
b0 B"
b0 Y"
b0 _"
1!
#130000
0!
#135000
b10 H
b10 _
b10 ?
b10 W
b10 Z
b10 w
b10 ."
b10 )
b10 N
b10 \
b10 !"
b10 2"
b1000000000000100010011 7
b1000000000000100010011 S
b1000000000000100010011 Y
b1000000000000100010011 j
b1000000000000100010011 G"
b1 C"
b100 A
b100 %"
b100 8"
b100 ?"
b100 B"
b100 Y"
b100 _"
1!
#140000
0!
#145000
b0 H"
b0 O"
b1000000000000010010011 0
b1000000000000010010011 E
b1000000000000010010011 I"
b1000000000000010010011 P"
b0 <
b0 V
b0 b
b0 ["
b0 a"
b0 B
b1 +
b1 P
b1 f
b1 u
b1 ~
b1 7"
b10 8
b10 T
b10 k
b10 s
b10 z
b10 0"
0.
b1000 -
b1000 $"
b1000 )"
b1000 ,"
b1000 9"
b0 1
b0 &"
b0 -"
b0 >"
b0 A"
b0 V"
b0 \"
1>
0l
b10 ,
b10 Q
b10 d
b10 |
b10 6"
b10 ;"
b11111111111111111111111111111000 2
b11111111111111111111111111111000 '"
b11111111111111111111111111111000 ("
b11111111111111111111111111111000 +"
b11111111111111111111111111111000 5"
1p
b1100011 v
b1 I
b1 `
b11001 H
b11001 _
b11111111111100001000011111100010 &
b11111111111100001000011111100010 L
b11111111111100001000011111100010 ^
b11111111111100001000011111100010 #"
b11111111111100001000011111100010 4"
b11111111111111111111111111111000 ?
b11111111111111111111111111111000 W
b11111111111111111111111111111000 Z
b11111111111111111111111111111000 w
b11111111111111111111111111111000 ."
b11111110001000001000000000000000 '
b11111110001000001000000000000000 M
b11111110001000001000000000000000 ]
b11111110001000001000000000000000 ""
b11111110001000001000000000000000 3"
b11111110001000001000000000000000 X"
b11111110001000001000000000000000 ^"
b11111111111111111111111111100010 9
b11111111111111111111111111100010 U
b11111111111111111111111111100010 [
b11111111111111111111111111100010 y
b11111111111111111111111111100010 /"
b11111111111111111111111111111001 )
b11111111111111111111111111111001 N
b11111111111111111111111111111001 \
b11111111111111111111111111111001 !"
b11111111111111111111111111111001 2"
b11111110001000001000110011100011 7
b11111110001000001000110011100011 S
b11111110001000001000110011100011 Y
b11111110001000001000110011100011 j
b11111110001000001000110011100011 G"
b10 C"
b1000 A
b1000 %"
b1000 8"
b1000 ?"
b1000 B"
b1000 Y"
b1000 _"
1!
#150000
0!
