riscv.vcd
$date
	Wed Sep 27 00:48:06 2023
$end
$version
	Icarus Verilog
$end
$timescale
	1ps
$end
$scope module riscv_tb $end
$var reg 1 ! clk $end
$var reg 1 " enable $end
$var reg 1 # rst $end
$scope module u_riscv $end
$var wire 1 ! clk $end
$var wire 1 " enable $end
$var wire 1 # rst $end
$var wire 4 $ wrapmasking [3:0] $end
$var wire 32 % uj_imme [31:0] $end
$var wire 32 & u_imme [31:0] $end
$var wire 1 ' store $end
$var wire 32 ( s_imme [31:0] $end
$var wire 32 ) rs2 [31:0] $end
$var wire 2 * rs1_sel [1:0] $end
$var wire 32 + rs1 [31:0] $end
$var wire 32 , res [31:0] $end
$var wire 1 - reg_write $end
$var wire 2 . rd_sel [1:0] $end
$var wire 32 / out [31:0] $end
$var wire 32 0 op_b [31:0] $end
$var wire 1 1 mem_write $end
$var wire 1 2 load $end
$var wire 1 3 jalr $end
$var wire 1 4 jal $end
$var wire 32 5 instr_out [31:0] $end
$var wire 3 6 imme_sel [2:0] $end
$var wire 32 7 i_imme [31:0] $end
$var wire 32 8 data_out_s [31:0] $end
$var wire 32 9 data_out_l [31:0] $end
$var wire 32 : data_mem_out [31:0] $end
$var wire 32 ; data [31:0] $end
$var wire 1 < branchsignal $end
$var wire 1 = branch $end
$var wire 32 > b_imme [31:0] $end
$var wire 4 ? alu_controller [3:0] $end
$var wire 32 @ address_out [31:0] $end
$scope module u_alu $end
$var wire 32 A rs2 [31:0] $end
$var wire 32 B rs1 [31:0] $end
$var wire 4 C op [3:0] $end
$var reg 32 D out [31:0] $end
$upscope $end
$scope module u_alu_mux $end
$var wire 32 E uj_imme [31:0] $end
$var wire 32 F u_imme [31:0] $end
$var wire 32 G s_imme [31:0] $end
$var wire 32 H rs2 [31:0] $end
$var wire 3 I imme_sel [2:0] $end
$var wire 32 J i_imme [31:0] $end
$var wire 32 K b_imme [31:0] $end
$var reg 32 L op_b [31:0] $end
$upscope $end
$scope module u_alu_mux2 $end
$var wire 2 M rs_sel [1:0] $end
$var wire 32 N rs1 [31:0] $end
$var wire 32 O pc_out [31:0] $end
$var reg 32 P res [31:0] $end
$upscope $end
$scope module u_branch $end
$var wire 3 Q func_3 [2:0] $end
$var wire 32 R rs2 [31:0] $end
$var wire 32 S rs1 [31:0] $end
$var wire 1 = bena $end
$var reg 1 < branchsignal $end
$upscope $end
$scope module u_datamem $end
$var wire 8 T address [7:0] $end
$var wire 1 ! clk $end
$var wire 1 ' store $end
$var wire 4 U masking [3:0] $end
$var wire 1 2 load $end
$var wire 32 V data_mem_in [31:0] $end
$var reg 32 W data_mem_out [31:0] $end
$upscope $end
$scope module u_immediate_generator $end
$var wire 32 X inst [31:0] $end
$var reg 32 Y b_imme [31:0] $end
$var reg 32 Z i_imme [31:0] $end
$var reg 32 [ s_imme [31:0] $end
$var reg 32 \ u_imme [31:0] $end
$var reg 32 ] uj_imme [31:0] $end
$upscope $end
$scope module u_instructionmemory $end
$var wire 8 ^ address [7:0] $end
$var wire 1 ! clk $end
$var wire 32 _ data_in [31:0] $end
$var wire 1 " enable $end
$var reg 32 ` data_out [31:0] $end
$upscope $end
$scope module u_pc $end
$var wire 32 a address_in [31:0] $end
$var wire 32 b aluout [31:0] $end
$var wire 1 < branchsignal $end
$var wire 1 ! clk $end
$var wire 1 # rst $end
$var wire 1 3 jalr $end
$var wire 1 4 jal $end
$var wire 1 = branch $end
$var reg 32 c address_out [31:0] $end
$upscope $end
$scope module u_regfile $end
$var wire 1 ! clk $end
$var wire 5 d rd_add [4:0] $end
$var wire 5 e rs1_add [4:0] $end
$var wire 5 f rs2_add [4:0] $end
$var wire 1 # rst $end
$var wire 1 - reg_enable $end
$var wire 32 g data_i [31:0] $end
$var reg 32 h i [31:0] $end
$var reg 32 i rs1 [31:0] $end
$var reg 32 j rs2 [31:0] $end
$upscope $end
$scope module u_regfile_mux $end
$var wire 32 k data_alu_out [31:0] $end
$var wire 32 l lui_imme [31:0] $end
$var wire 32 m pc_o [31:0] $end
$var wire 2 n rd_select [1:0] $end
$var wire 1 2 load $end
$var wire 32 o data_reg_l [31:0] $end
$var reg 32 p data [31:0] $end
$upscope $end
$scope module u_top_controller $end
$var wire 32 q inst [31:0] $end
$var wire 1 ' store $end
$var wire 2 r rs1_sel [1:0] $end
$var wire 1 - reg_write $end
$var wire 2 s rd_sel [1:0] $end
$var wire 1 t r_type $end
$var wire 1 1 mem_write $end
$var wire 1 u lui $end
$var wire 1 2 load $end
$var wire 1 3 jalr $end
$var wire 1 4 jal $end
$var wire 3 v imme_sel [2:0] $end
$var wire 1 w i_type $end
$var wire 1 = branch $end
$var wire 1 x auipc $end
$var wire 4 y alu_controller [3:0] $end
$scope module u_alu_control $end
$var wire 3 z func3 [2:0] $end
$var wire 1 { func7 $end
$var wire 1 ' store $end
$var wire 1 t r_type $end
$var wire 1 u lui $end
$var wire 1 2 load $end
$var wire 1 4 jal $end
$var wire 1 w i_type $end
$var wire 1 = branch $end
$var wire 1 x auipc $end
$var reg 4 | alu_controller [3:0] $end
$upscope $end
$scope module u_controller $end
$var wire 1 ' store $end
$var wire 1 t r_type $end
$var wire 1 u lui $end
$var wire 1 2 load $end
$var wire 1 3 jalr $end
$var wire 1 4 jal $end
$var wire 1 w i_type $end
$var wire 1 = branch $end
$var wire 1 x auipc $end
$var reg 3 } imme_sel [2:0] $end
$var reg 1 1 mem_write $end
$var reg 2 ~ rd_sel [1:0] $end
$var reg 1 - reg_write $end
$var reg 2 !" rs1_sel [1:0] $end
$upscope $end
$scope module u_typedecode $end
$var wire 7 "" opcode [6:0] $end
$var reg 1 x auipc $end
$var reg 1 = branch $end
$var reg 1 w i_type $end
$var reg 1 4 jal $end
$var reg 1 3 jalr $end
$var reg 1 2 load $end
$var reg 1 u lui $end
$var reg 1 t r_type $end
$var reg 1 ' store $end
$upscope $end
$upscope $end
$scope module u_wrapper $end
$var wire 2 #" byte_address [1:0] $end
$var wire 32 $" data_in_l [31:0] $end
$var wire 32 %" data_in_s [31:0] $end
$var wire 3 &" func3 [2:0] $end
$var wire 1 2 load $end
$var wire 1 ' store $end
$var reg 32 '" data_out_l [31:0] $end
$var reg 32 (" data_out_s [31:0] $end
$var reg 4 )" wrapmasking [3:0] $end
$upscope $end
$upscope $end
$upscope $end
$enddefinitions $end
#0
$dumpvars
bx )"
bx ("
bx '"
bx &"
bx %"
bx $"
bx #"
bx ""
bx !"
bx ~
bx }
bx |
x{
bx z
bx y
xx
xw
bx v
xu
xt
bx s
bx r
bx q
bx p
bx o
bx n
bx m
bx l
bx k
bx j
bx i
bx h
bx g
bx f
bx e
bx d
bx c
bx b
b0 a
bx `
bz _
bx ^
bx ]
bx \
bx [
bx Z
bx Y
bx X
bx W
bx V
bx U
bx T
bx S
bx R
bx Q
bx P
bx O
bx N
bx M
bx L
bx K
bx J
bx I
bx H
bx G
bx F
bx E
bx D
bx C
bx B
bx A
bx @
bx ?
bx >
x=
x<
bx ;
bx :
bx 9
bx 8
bx 7
bx 6
bx 5
x4
x3
x2
x1
bx 0
bx /
bx .
x-
bx ,
bx +
bx *
bx )
bx (
x'
bx &
bx %
bx $
0#
x"
0!
$end
#5000
b1 ;
b1 g
b1 p
b1 #"
b0 T
b1 /
b1 D
b1 b
b1 k
b1 0
b1 A
b1 L
b0 ?
b0 C
b0 y
b0 |
b1 6
b1 I
b1 v
b1 }
b0 *
b0 M
b0 r
b0 !"
b0 .
b0 n
b0 s
b0 ~
1-
01
b0 ,
b0 B
b0 P
0x
0u
03
04
0=
02
0'
1w
0t
b0 )
b0 H
b0 R
b0 j
b0 %"
b0 +
b0 N
b0 S
b0 i
b10011 ""
b0 z
0{
b0 &"
b0 Q
b1 f
b0 e
b1 d
b10000000000000000000 &
b10000000000000000000 F
b10000000000000000000 \
b10000000000000000000 l
b100000000000 %
b100000000000 E
b100000000000 ]
b100000000000 >
b100000000000 K
b100000000000 Y
b1 7
b1 J
b1 Z
b1 (
b1 G
b1 [
b100000000000010010011 5
b100000000000010010011 X
b100000000000010010011 `
b100000000000010010011 q
b0 ^
b0 @
b0 O
b0 c
b0 m
b100000 h
1!
#10000
0!
0"
1#
#15000
b100 ,
b100 B
b100 P
b1000000000000000000000000100 ;
b1000000000000000000000000100 g
b1000000000000000000000000100 p
b0 #"
b1 T
b1 *
b1 M
b1 r
b1 !"
b100 6
b100 I
b100 v
b100 }
1-
b1000000000000000000000000100 /
b1000000000000000000000000100 D
b1000000000000000000000000100 b
b1000000000000000000000000100 k
1x
0w
b1000000000000000000000000000 0
b1000000000000000000000000000 A
b1000000000000000000000000000 L
b10111 ""
b0 f
b1000000000000000000000000000 &
b1000000000000000000000000000 F
b1000000000000000000000000000 \
b1000000000000000000000000000 l
b100000000 %
b100000000 E
b100000000 ]
b100100000000 >
b100100000000 K
b100100000000 Y
b100000000 7
b100000000 J
b100000000 Z
b100000001 (
b100000001 G
b100000001 [
b10000000000000000000010010111 5
b10000000000000000000010010111 X
b10000000000000000000010010111 `
b10000000000000000000010010111 q
b0 )
b0 H
b0 R
b0 j
b0 %"
b1 ^
b100 @
b100 O
b100 c
b100 m
1!
#20000
0!
#25000
b0 6
b0 I
b0 v
b0 }
b0 *
b0 M
b0 r
b0 !"
1-
1t
0x
b1000000000000000000000000100 )
b1000000000000000000000000100 H
b1000000000000000000000000100 R
b1000000000000000000000000100 j
b1000000000000000000000000100 %"
b1000000000000000000000000100 0
b1000000000000000000000000100 A
b1000000000000000000000000100 L
b110011 ""
b1 f
b10 d
b10000000000000000000 &
b10000000000000000000 F
b10000000000000000000 \
b10000000000000000000 l
b100000000000 %
b100000000000 E
b100000000000 ]
b10 >
b10 K
b10 Y
b1 7
b1 J
b1 Z
b10 (
b10 G
b10 [
b1000000000000000000000000100 ;
b1000000000000000000000000100 g
b1000000000000000000000000100 p
b1 T
b100000000000100110011 5
b100000000000100110011 X
b100000000000100110011 `
b100000000000100110011 q
b1000000000000000000000000100 /
b1000000000000000000000000100 D
b1000000000000000000000000100 b
b1000000000000000000000000100 k
b10 ^
b0 ,
b0 B
b0 P
b1000 @
b1000 O
b1000 c
b1000 m
1!
#30000
0!
#35000
b11111111111111111111111111110100 0
b11111111111111111111111111110100 A
b11111111111111111111111111110100 L
b0 ;
b0 g
b0 p
b0 T
b1 *
b1 M
b1 r
b1 !"
b10 6
b10 I
b10 v
b10 }
0-
b0 /
b0 D
b0 b
b0 k
b1100 ,
b1100 B
b1100 P
1<
1=
0t
b0 ?
b0 C
b0 y
b0 |
b1000000000000000000000000100 +
b1000000000000000000000000100 N
b1000000000000000000000000100 S
b1000000000000000000000000100 i
b1100011 ""
1{
b10 f
b1 e
b10101 d
b1111111000100000100000000000000 &
b1111111000100000100000000000000 F
b1111111000100000100000000000000 \
b1111111000100000100000000000000 l
b11111111111100001000011111100010 %
b11111111111100001000011111100010 E
b11111111111100001000011111100010 ]
b11111111111111111111111111110100 >
b11111111111111111111111111110100 K
b11111111111111111111111111110100 Y
b11111111111111111111111111100010 7
b11111111111111111111111111100010 J
b11111111111111111111111111100010 Z
b11111111111111111111111111110101 (
b11111111111111111111111111110101 G
b11111111111111111111111111110101 [
b11111110001000001000101011100011 5
b11111110001000001000101011100011 X
b11111110001000001000101011100011 `
b11111110001000001000101011100011 q
b11 ^
b1100 @
b1100 O
b1100 c
b1100 m
1!
#40000
0!
#45000
b1 #"
1-
b1 6
b1 I
b1 v
b1 }
b0 *
b0 M
b0 r
b0 !"
1w
0=
b0 +
b0 N
b0 S
b0 i
b1 0
b1 A
b1 L
b10011 ""
0{
b1 f
b0 e
b1 d
b10000000000000000000 &
b10000000000000000000 F
b10000000000000000000 \
b10000000000000000000 l
b100000000000 %
b100000000000 E
b100000000000 ]
b100000000000 >
b100000000000 K
b100000000000 Y
b1 7
b1 J
b1 Z
b1 (
b1 G
b1 [
b1 ;
b1 g
b1 p
b0 T
b100000000000010010011 5
b100000000000010010011 X
b100000000000010010011 `
b100000000000010010011 q
b1 /
b1 D
b1 b
b1 k
b0 ^
b0 ,
b0 B
b0 P
b0 @
b0 O
b0 c
b0 m
1!
#50000
0!
#55000
b100 ,
b100 B
b100 P
b1000000000000000000000000100 ;
b1000000000000000000000000100 g
b1000000000000000000000000100 p
b0 #"
b1 T
b1 *
b1 M
b1 r
b1 !"
b100 6
b100 I
b100 v
b100 }
1-
b1000000000000000000000000100 /
b1000000000000000000000000100 D
b1000000000000000000000000100 b
b1000000000000000000000000100 k
1x
0w
b1000000000000000000000000000 0
b1000000000000000000000000000 A
b1000000000000000000000000000 L
b10111 ""
b0 f
b1000000000000000000000000000 &
b1000000000000000000000000000 F
b1000000000000000000000000000 \
b1000000000000000000000000000 l
b100000000 %
b100000000 E
b100000000 ]
b100100000000 >
b100100000000 K
b100100000000 Y
b100000000 7
b100000000 J
b100000000 Z
b100000001 (
b100000001 G
b100000001 [
b10000000000000000000010010111 5
b10000000000000000000010010111 X
b10000000000000000000010010111 `
b10000000000000000000010010111 q
b0 )
b0 H
b0 R
b0 j
b0 %"
b1 ^
b100 @
b100 O
b100 c
b100 m
1!
#60000
0!
#65000
b0 6
b0 I
b0 v
b0 }
b0 *
b0 M
b0 r
b0 !"
1-
1t
0x
b1000000000000000000000000100 )
b1000000000000000000000000100 H
b1000000000000000000000000100 R
b1000000000000000000000000100 j
b1000000000000000000000000100 %"
b1000000000000000000000000100 0
b1000000000000000000000000100 A
b1000000000000000000000000100 L
b110011 ""
b1 f
b10 d
b10000000000000000000 &
b10000000000000000000 F
b10000000000000000000 \
b10000000000000000000 l
b100000000000 %
b100000000000 E
b100000000000 ]
b10 >
b10 K
b10 Y
b1 7
b1 J
b1 Z
b10 (
b10 G
b10 [
b1000000000000000000000000100 ;
b1000000000000000000000000100 g
b1000000000000000000000000100 p
b1 T
b100000000000100110011 5
b100000000000100110011 X
b100000000000100110011 `
b100000000000100110011 q
b1000000000000000000000000100 /
b1000000000000000000000000100 D
b1000000000000000000000000100 b
b1000000000000000000000000100 k
b10 ^
b0 ,
b0 B
b0 P
b1000 @
b1000 O
b1000 c
b1000 m
1!
#70000
0!
#75000
b11111111111111111111111111110100 0
b11111111111111111111111111110100 A
b11111111111111111111111111110100 L
b0 ;
b0 g
b0 p
b0 T
b1 *
b1 M
b1 r
b1 !"
b10 6
b10 I
b10 v
b10 }
0-
b0 /
b0 D
b0 b
b0 k
b1100 ,
b1100 B
b1100 P
1=
0t
b0 ?
b0 C
b0 y
b0 |
b1000000000000000000000000100 +
b1000000000000000000000000100 N
b1000000000000000000000000100 S
b1000000000000000000000000100 i
b1100011 ""
1{
b10 f
b1 e
b10101 d
b1111111000100000100000000000000 &
b1111111000100000100000000000000 F
b1111111000100000100000000000000 \
b1111111000100000100000000000000 l
b11111111111100001000011111100010 %
b11111111111100001000011111100010 E
b11111111111100001000011111100010 ]
b11111111111111111111111111110100 >
b11111111111111111111111111110100 K
b11111111111111111111111111110100 Y
b11111111111111111111111111100010 7
b11111111111111111111111111100010 J
b11111111111111111111111111100010 Z
b11111111111111111111111111110101 (
b11111111111111111111111111110101 G
b11111111111111111111111111110101 [
b11111110001000001000101011100011 5
b11111110001000001000101011100011 X
b11111110001000001000101011100011 `
b11111110001000001000101011100011 q
b11 ^
b1100 @
b1100 O
b1100 c
b1100 m
1!
#80000
0!
#85000
b1 #"
1-
b1 6
b1 I
b1 v
b1 }
b0 *
b0 M
b0 r
b0 !"
1w
0=
b0 +
b0 N
b0 S
b0 i
b1 0
b1 A
b1 L
b10011 ""
0{
b1 f
b0 e
b1 d
b10000000000000000000 &
b10000000000000000000 F
b10000000000000000000 \
b10000000000000000000 l
b100000000000 %
b100000000000 E
b100000000000 ]
b100000000000 >
b100000000000 K
b100000000000 Y
b1 7
b1 J
b1 Z
b1 (
b1 G
b1 [
b1 ;
b1 g
b1 p
b0 T
b100000000000010010011 5
b100000000000010010011 X
b100000000000010010011 `
b100000000000010010011 q
b1 /
b1 D
b1 b
b1 k
b0 ^
b0 ,
b0 B
b0 P
b0 @
b0 O
b0 c
b0 m
1!
#90000
0!
#95000
b100 ,
b100 B
b100 P
b1000000000000000000000000100 ;
b1000000000000000000000000100 g
b1000000000000000000000000100 p
b0 #"
b1 T
b1 *
b1 M
b1 r
b1 !"
b100 6
b100 I
b100 v
b100 }
1-
b1000000000000000000000000100 /
b1000000000000000000000000100 D
b1000000000000000000000000100 b
b1000000000000000000000000100 k
1x
0w
b1000000000000000000000000000 0
b1000000000000000000000000000 A
b1000000000000000000000000000 L
b10111 ""
b0 f
b1000000000000000000000000000 &
b1000000000000000000000000000 F
b1000000000000000000000000000 \
b1000000000000000000000000000 l
b100000000 %
b100000000 E
b100000000 ]
b100100000000 >
b100100000000 K
b100100000000 Y
b100000000 7
b100000000 J
b100000000 Z
b100000001 (
b100000001 G
b100000001 [
b10000000000000000000010010111 5
b10000000000000000000010010111 X
b10000000000000000000010010111 `
b10000000000000000000010010111 q
b0 )
b0 H
b0 R
b0 j
b0 %"
b1 ^
b100 @
b100 O
b100 c
b100 m
1!
#100000
0!
#105000
b0 6
b0 I
b0 v
b0 }
b0 *
b0 M
b0 r
b0 !"
1-
1t
0x
b1000000000000000000000000100 )
b1000000000000000000000000100 H
b1000000000000000000000000100 R
b1000000000000000000000000100 j
b1000000000000000000000000100 %"
b1000000000000000000000000100 0
b1000000000000000000000000100 A
b1000000000000000000000000100 L
b110011 ""
b1 f
b10 d
b10000000000000000000 &
b10000000000000000000 F
b10000000000000000000 \
b10000000000000000000 l
b100000000000 %
b100000000000 E
b100000000000 ]
b10 >
b10 K
b10 Y
b1 7
b1 J
b1 Z
b10 (
b10 G
b10 [
b1000000000000000000000000100 ;
b1000000000000000000000000100 g
b1000000000000000000000000100 p
b1 T
b100000000000100110011 5
b100000000000100110011 X
b100000000000100110011 `
b100000000000100110011 q
b1000000000000000000000000100 /
b1000000000000000000000000100 D
b1000000000000000000000000100 b
b1000000000000000000000000100 k
b10 ^
b0 ,
b0 B
b0 P
b1000 @
b1000 O
b1000 c
b1000 m
1!
#110000
0!
#115000
b11111111111111111111111111110100 0
b11111111111111111111111111110100 A
b11111111111111111111111111110100 L
b0 ;
b0 g
b0 p
b0 T
b1 *
b1 M
b1 r
b1 !"
b10 6
b10 I
b10 v
b10 }
0-
b0 /
b0 D
b0 b
b0 k
b1100 ,
b1100 B
b1100 P
1=
0t
b0 ?
b0 C
b0 y
b0 |
b1000000000000000000000000100 +
b1000000000000000000000000100 N
b1000000000000000000000000100 S
b1000000000000000000000000100 i
b1100011 ""
1{
b10 f
b1 e
b10101 d
b1111111000100000100000000000000 &
b1111111000100000100000000000000 F
b1111111000100000100000000000000 \
b1111111000100000100000000000000 l
b11111111111100001000011111100010 %
b11111111111100001000011111100010 E
b11111111111100001000011111100010 ]
b11111111111111111111111111110100 >
b11111111111111111111111111110100 K
b11111111111111111111111111110100 Y
b11111111111111111111111111100010 7
b11111111111111111111111111100010 J
b11111111111111111111111111100010 Z
b11111111111111111111111111110101 (
b11111111111111111111111111110101 G
b11111111111111111111111111110101 [
b11111110001000001000101011100011 5
b11111110001000001000101011100011 X
b11111110001000001000101011100011 `
b11111110001000001000101011100011 q
b11 ^
b1100 @
b1100 O
b1100 c
b1100 m
1!
#120000
0!
#125000
b1 #"
1-
b1 6
b1 I
b1 v
b1 }
b0 *
b0 M
b0 r
b0 !"
1w
0=
b0 +
b0 N
b0 S
b0 i
b1 0
b1 A
b1 L
b10011 ""
0{
b1 f
b0 e
b1 d
b10000000000000000000 &
b10000000000000000000 F
b10000000000000000000 \
b10000000000000000000 l
b100000000000 %
b100000000000 E
b100000000000 ]
b100000000000 >
b100000000000 K
b100000000000 Y
b1 7
b1 J
b1 Z
b1 (
b1 G
b1 [
b1 ;
b1 g
b1 p
b0 T
b100000000000010010011 5
b100000000000010010011 X
b100000000000010010011 `
b100000000000010010011 q
b1 /
b1 D
b1 b
b1 k
b0 ^
b0 ,
b0 B
b0 P
b0 @
b0 O
b0 c
b0 m
1!
#130000
0!
#135000
b100 ,
b100 B
b100 P
b1000000000000000000000000100 ;
b1000000000000000000000000100 g
b1000000000000000000000000100 p
b0 #"
b1 T
b1 *
b1 M
b1 r
b1 !"
b100 6
b100 I
b100 v
b100 }
1-
b1000000000000000000000000100 /
b1000000000000000000000000100 D
b1000000000000000000000000100 b
b1000000000000000000000000100 k
1x
0w
b1000000000000000000000000000 0
b1000000000000000000000000000 A
b1000000000000000000000000000 L
b10111 ""
b0 f
b1000000000000000000000000000 &
b1000000000000000000000000000 F
b1000000000000000000000000000 \
b1000000000000000000000000000 l
b100000000 %
b100000000 E
b100000000 ]
b100100000000 >
b100100000000 K
b100100000000 Y
b100000000 7
b100000000 J
b100000000 Z
b100000001 (
b100000001 G
b100000001 [
b10000000000000000000010010111 5
b10000000000000000000010010111 X
b10000000000000000000010010111 `
b10000000000000000000010010111 q
b0 )
b0 H
b0 R
b0 j
b0 %"
b1 ^
b100 @
b100 O
b100 c
b100 m
1!
#140000
0!
#145000
b0 6
b0 I
b0 v
b0 }
b0 *
b0 M
b0 r
b0 !"
1-
1t
0x
b1000000000000000000000000100 )
b1000000000000000000000000100 H
b1000000000000000000000000100 R
b1000000000000000000000000100 j
b1000000000000000000000000100 %"
b1000000000000000000000000100 0
b1000000000000000000000000100 A
b1000000000000000000000000100 L
b110011 ""
b1 f
b10 d
b10000000000000000000 &
b10000000000000000000 F
b10000000000000000000 \
b10000000000000000000 l
b100000000000 %
b100000000000 E
b100000000000 ]
b10 >
b10 K
b10 Y
b1 7
b1 J
b1 Z
b10 (
b10 G
b10 [
b1000000000000000000000000100 ;
b1000000000000000000000000100 g
b1000000000000000000000000100 p
b1 T
b100000000000100110011 5
b100000000000100110011 X
b100000000000100110011 `
b100000000000100110011 q
b1000000000000000000000000100 /
b1000000000000000000000000100 D
b1000000000000000000000000100 b
b1000000000000000000000000100 k
b10 ^
b0 ,
b0 B
b0 P
b1000 @
b1000 O
b1000 c
b1000 m
1!
#150000
0!
#155000
b11111111111111111111111111110100 0
b11111111111111111111111111110100 A
b11111111111111111111111111110100 L
b0 ;
b0 g
b0 p
b0 T
b1 *
b1 M
b1 r
b1 !"
b10 6
b10 I
b10 v
b10 }
0-
b0 /
b0 D
b0 b
b0 k
b1100 ,
b1100 B
b1100 P
1=
0t
b0 ?
b0 C
b0 y
b0 |
b1000000000000000000000000100 +
b1000000000000000000000000100 N
b1000000000000000000000000100 S
b1000000000000000000000000100 i
b1100011 ""
1{
b10 f
b1 e
b10101 d
b1111111000100000100000000000000 &
b1111111000100000100000000000000 F
b1111111000100000100000000000000 \
b1111111000100000100000000000000 l
b11111111111100001000011111100010 %
b11111111111100001000011111100010 E
b11111111111100001000011111100010 ]
b11111111111111111111111111110100 >
b11111111111111111111111111110100 K
b11111111111111111111111111110100 Y
b11111111111111111111111111100010 7
b11111111111111111111111111100010 J
b11111111111111111111111111100010 Z
b11111111111111111111111111110101 (
b11111111111111111111111111110101 G
b11111111111111111111111111110101 [
b11111110001000001000101011100011 5
b11111110001000001000101011100011 X
b11111110001000001000101011100011 `
b11111110001000001000101011100011 q
b11 ^
b1100 @
b1100 O
b1100 c
b1100 m
1!
#160000
0!
#165000
b1 #"
1-
b1 6
b1 I
b1 v
b1 }
b0 *
b0 M
b0 r
b0 !"
1w
0=
b0 +
b0 N
b0 S
b0 i
b1 0
b1 A
b1 L
b10011 ""
0{
b1 f
b0 e
b1 d
b10000000000000000000 &
b10000000000000000000 F
b10000000000000000000 \
b10000000000000000000 l
b100000000000 %
b100000000000 E
b100000000000 ]
b100000000000 >
b100000000000 K
b100000000000 Y
b1 7
b1 J
b1 Z
b1 (
b1 G
b1 [
b1 ;
b1 g
b1 p
b0 T
b100000000000010010011 5
b100000000000010010011 X
b100000000000010010011 `
b100000000000010010011 q
b1 /
b1 D
b1 b
b1 k
b0 ^
b0 ,
b0 B
b0 P
b0 @
b0 O
b0 c
b0 m
1!
#170000
0!
#175000
b100 ,
b100 B
b100 P
b1000000000000000000000000100 ;
b1000000000000000000000000100 g
b1000000000000000000000000100 p
b0 #"
b1 T
b1 *
b1 M
b1 r
b1 !"
b100 6
b100 I
b100 v
b100 }
1-
b1000000000000000000000000100 /
b1000000000000000000000000100 D
b1000000000000000000000000100 b
b1000000000000000000000000100 k
1x
0w
b1000000000000000000000000000 0
b1000000000000000000000000000 A
b1000000000000000000000000000 L
b10111 ""
b0 f
b1000000000000000000000000000 &
b1000000000000000000000000000 F
b1000000000000000000000000000 \
b1000000000000000000000000000 l
b100000000 %
b100000000 E
b100000000 ]
b100100000000 >
b100100000000 K
b100100000000 Y
b100000000 7
b100000000 J
b100000000 Z
b100000001 (
b100000001 G
b100000001 [
b10000000000000000000010010111 5
b10000000000000000000010010111 X
b10000000000000000000010010111 `
b10000000000000000000010010111 q
b0 )
b0 H
b0 R
b0 j
b0 %"
b1 ^
b100 @
b100 O
b100 c
b100 m
1!
#180000
0!
#185000
b0 6
b0 I
b0 v
b0 }
b0 *
b0 M
b0 r
b0 !"
1-
1t
0x
b1000000000000000000000000100 )
b1000000000000000000000000100 H
b1000000000000000000000000100 R
b1000000000000000000000000100 j
b1000000000000000000000000100 %"
b1000000000000000000000000100 0
b1000000000000000000000000100 A
b1000000000000000000000000100 L
b110011 ""
b1 f
b10 d
b10000000000000000000 &
b10000000000000000000 F
b10000000000000000000 \
b10000000000000000000 l
b100000000000 %
b100000000000 E
b100000000000 ]
b10 >
b10 K
b10 Y
b1 7
b1 J
b1 Z
b10 (
b10 G
b10 [
b1000000000000000000000000100 ;
b1000000000000000000000000100 g
b1000000000000000000000000100 p
b1 T
b100000000000100110011 5
b100000000000100110011 X
b100000000000100110011 `
b100000000000100110011 q
b1000000000000000000000000100 /
b1000000000000000000000000100 D
b1000000000000000000000000100 b
b1000000000000000000000000100 k
b10 ^
b0 ,
b0 B
b0 P
b1000 @
b1000 O
b1000 c
b1000 m
1!
#190000
0!
#195000
b11111111111111111111111111110100 0
b11111111111111111111111111110100 A
b11111111111111111111111111110100 L
b0 ;
b0 g
b0 p
b0 T
b1 *
b1 M
b1 r
b1 !"
b10 6
b10 I
b10 v
b10 }
0-
b0 /
b0 D
b0 b
b0 k
b1100 ,
b1100 B
b1100 P
1=
0t
b0 ?
b0 C
b0 y
b0 |
b1000000000000000000000000100 +
b1000000000000000000000000100 N
b1000000000000000000000000100 S
b1000000000000000000000000100 i
b1100011 ""
1{
b10 f
b1 e
b10101 d
b1111111000100000100000000000000 &
b1111111000100000100000000000000 F
b1111111000100000100000000000000 \
b1111111000100000100000000000000 l
b11111111111100001000011111100010 %
b11111111111100001000011111100010 E
b11111111111100001000011111100010 ]
b11111111111111111111111111110100 >
b11111111111111111111111111110100 K
b11111111111111111111111111110100 Y
b11111111111111111111111111100010 7
b11111111111111111111111111100010 J
b11111111111111111111111111100010 Z
b11111111111111111111111111110101 (
b11111111111111111111111111110101 G
b11111111111111111111111111110101 [
b11111110001000001000101011100011 5
b11111110001000001000101011100011 X
b11111110001000001000101011100011 `
b11111110001000001000101011100011 q
b11 ^
b1100 @
b1100 O
b1100 c
b1100 m
1!
#200000
0!
#205000
b1 #"
1-
b1 6
b1 I
b1 v
b1 }
b0 *
b0 M
b0 r
b0 !"
1w
0=
b0 +
b0 N
b0 S
b0 i
b1 0
b1 A
b1 L
b10011 ""
0{
b1 f
b0 e
b1 d
b10000000000000000000 &
b10000000000000000000 F
b10000000000000000000 \
b10000000000000000000 l
b100000000000 %
b100000000000 E
b100000000000 ]
b100000000000 >
b100000000000 K
b100000000000 Y
b1 7
b1 J
b1 Z
b1 (
b1 G
b1 [
b1 ;
b1 g
b1 p
b0 T
b100000000000010010011 5
b100000000000010010011 X
b100000000000010010011 `
b100000000000010010011 q
b1 /
b1 D
b1 b
b1 k
b0 ^
b0 ,
b0 B
b0 P
b0 @
b0 O
b0 c
b0 m
1!
